…
Below is a table summarizing the number of items ordered from aisle. In
total, there are 134 aisles, with fresh vegetables and fresh fruits
holding the most items ordered by far.

``` r
instacart %>% 
  count(aisle) %>% 
  arrange(desc(n))
```

    ## # A tibble: 134 × 2
    ##    aisle                              n
    ##    <chr>                          <int>
    ##  1 fresh vegetables              150609
    ##  2 fresh fruits                  150473
    ##  3 packaged vegetables fruits     78493
    ##  4 yogurt                         55240
    ##  5 packaged cheese                41699
    ##  6 water seltzer sparkling water  36617
    ##  7 milk                           32644
    ##  8 chips pretzels                 31269
    ##  9 soy lactosefree                26240
    ## 10 bread                          23635
    ## # … with 124 more rows
…
    ## [1] 7

Description: This dataset(ny_noaa) has ‘nrow(ny_noaa)’ row and
‘ncol(ny_noaa)’ columns. There are total 7 row, which are
id、date、prcp、snow、snwd 、tmax and tmin.Those are key Variables. Each
row represent the weather of NY from ‘1981-01-01’ to ‘2010-12-31’. There
are also some data missing. Find out how much data is missing are
’table(is.na(ny_noaa$prcp))'、table(is.na(ny_noaa$snow))、table(is.na(ny_noaa$snwd))、table(is.na(ny_noaa$tmax))、table(is.na(ny_noaa\$tmin)).

``` r
ny_noaa_clearn = separate(ny_noaa,date, into= c("year","month",'day'),sep= "-")
ny_noaa_clearn
```

    ## # A tibble: 2,595,176 × 9
    ##    id          year  month day    prcp  snow  snwd tmax  tmin 
    ##    <chr>       <chr> <chr> <chr> <int> <int> <int> <chr> <chr>
    ##  1 US1NYAB0001 2007  11    01       NA    NA    NA <NA>  <NA> 
    ##  2 US1NYAB0001 2007  11    02       NA    NA    NA <NA>  <NA> 
    ##  3 US1NYAB0001 2007  11    03       NA    NA    NA <NA>  <NA> 
    ##  4 US1NYAB0001 2007  11    04       NA    NA    NA <NA>  <NA> 
    ##  5 US1NYAB0001 2007  11    05       NA    NA    NA <NA>  <NA> 
    ##  6 US1NYAB0001 2007  11    06       NA    NA    NA <NA>  <NA> 
    ##  7 US1NYAB0001 2007  11    07       NA    NA    NA <NA>  <NA> 
    ##  8 US1NYAB0001 2007  11    08       NA    NA    NA <NA>  <NA> 
    ##  9 US1NYAB0001 2007  11    09       NA    NA    NA <NA>  <NA> 
    ## 10 US1NYAB0001 2007  11    10       NA    NA    NA <NA>  <NA> 
    ## # … with 2,595,166 more rows
…
